{
    "characteristics": [
        [
            "Thermoregulation refers to",
            [
                "the control of body temperature"
            ]
        ],
        [
            "animals break down larger complex molecules into simpler molecules through the process of",
            [
                "digestion"
            ]
        ],
        [
            "Geotropism describes a plants response to",
            [
                "gravity which causes the roots to grow down into the soil"
            ]
        ],
        [
            "Chemical reactions that take place inside living cells are described as",
            [
                "metabolic reactions"
            ],
            [
                12.827511072158813,
                7.090947389602661
            ]
        ],
        [
            "Viruses are a good example of",
            [
                "non-living particles/agents"
            ]
        ],
        [
            "This",
            [
                "is called homeostasis"
            ]
        ],
        [
            "These toxic products must be eliminated from the",
            [
                "body"
            ]
        ],
        [
            "If body temperature increases e.g. during exercise, mechanisms for control will be initiated to",
            [
                "return the temperature back to the optimum"
            ],
            [
                8.52
            ]
        ],
        [
            "Mechanisms include",
            [
                "sweating or vasodilation"
            ]
        ],
        [
            "The reactions ultimately result in the production of",
            [
                "carbon dioxide and water as waste products"
            ],
            [
                4.044142961502075,
                2.356
            ]
        ],
        [
            "Single-celled organisms such as bacteria or amoeba",
            [
                "reproduce asexually"
            ]
        ],
        [
            "In humans, the male gamete is",
            [
                "the sperm and the female gamete is the egg"
            ],
            [
                4.650248765945435
            ]
        ],
        [
            "The optimum human body temperature is",
            [
                "37\u00c2\u00b0C"
            ]
        ],
        [
            "In plants, an individual grows larger throughout their whole life with",
            [
                "new shoots, leaves, branches etc forming year after year"
            ]
        ],
        [
            "Waste products excreted by plants include",
            [
                "Oxygen from photosynthesis",
                "Carbon dioxide from respiration",
                "Water from respiration and other chemical reactions"
            ],
            [
                6.144
            ]
        ],
        [
            "As animals obtain their food from a range of different sources, they are described as being",
            [
                "heterotrophic"
            ]
        ],
        [
            "In this",
            [
                "type of reproduction, the male and female gametes fuse together"
            ]
        ],
        [
            "Growth is",
            [
                "defined as a permanent increase in size"
            ],
            [
                4.240344524383545
            ]
        ],
        [
            "The sensitivity of an organism refers to",
            [
                "its ability to detect and respond to stimuli in its surroundings"
            ],
            [
                5.473677158355713
            ]
        ],
        [
            "the acronym MRS C GREN",
            [
                "Movement",
                "Respiration",
                "Sensitivity",
                "Control",
                "Growth",
                "Reproduction",
                "Excretion",
                "Nutrition"
            ],
            [
                6.043903589248657,
                4.354
            ]
        ],
        [
            "The DNA of the offspring is",
            [
                "composed of both maternal and paternal DNA"
            ],
            [
                8.396795272827148
            ]
        ],
        [
            "Plants can reproduce asexually through",
            [
                "tubers, budding or runners"
            ],
            [
                7.580121994018555
            ]
        ],
        [
            "Water evaporates from the stomata on the underside of the leaf, leading to",
            [
                "heat loss"
            ]
        ],
        [
            "Energy is transferred in the form of",
            [
                "ATP"
            ],
            [
                2.6818957328796387
            ]
        ],
        [
            "There are different types of reproduction",
            [
                "sexual and asexual"
            ]
        ],
        [
            "Phototropism describes a plant's response to",
            [
                "light which causes shoots to grow towards sunlight"
            ],
            [
                1.958
            ]
        ],
        [
            "There is",
            [
                "only one parent involved so an exact clone is produced"
            ]
        ],
        [
            "Cells or whole organisms can also",
            [
                "reproduce using asexual reproduction"
            ]
        ],
        [
            "In animals, an individual grows larger between the zygote and adult stage with",
            [
                "changes in proportion or shape"
            ],
            [
                9.533824682235718,
                13.097306489944458
            ]
        ],
        [
            "In plants, the male gamete is",
            [
                "in the pollen grains and the female gamete isthe ovule"
            ],
            [
                6.131916046142578
            ]
        ],
        [
            "The endocrine system also allows a response to",
            [
                "stimuli using chemical messengers, which travel in the blood, called hormones"
            ]
        ],
        [
            "Other homeostatic mechanisms in humans include",
            [
                "glucoregulation (control of blood glucose levels) and osmoregulation (control of water levels)"
            ]
        ],
        [
            "Because plants create their own food for energy, they are described as being",
            [
                "autotrophic"
            ],
            [
                6.1439032554626465
            ]
        ],
        [
            "Reproduction is",
            [
                "fundamental to the survival of a population and ultimately, the species"
            ]
        ],
        [
            "Energy is necessary to carry out",
            [
                "e.g. movement, respiration and excretionq"
            ],
            [
                8.572641134262085
            ]
        ],
        [
            "Waste products excreted by animals include",
            [
                "Carbon dioxide from respiration",
                "Water from respiration and other chemical reactions",
                "Urea which contains nitrogen resulting from the breakdown of proteins"
            ],
            [
                6.034364700317383
            ]
        ],
        [
            "Living organisms must control their internal environment in order to",
            [
                "keep conditions within required limits"
            ],
            [
                7.552,
                5.237
            ]
        ],
        [
            "Plants use transpiration to",
            [
                "maintain a suitable temperature"
            ]
        ],
        [
            "Excretion is the removal of",
            [
                "toxic materials and substances from organisms"
            ],
            [
                4.88506293296814
            ]
        ],
        [
            "If something does not carry out all of these life processes",
            [
                "it is either dead or non-living"
            ],
            [
                4.632563829421997,
                7.324154853820801
            ]
        ],
        [
            "Responding to the environment around them gives an organism",
            [
                "the best chances of survival"
            ],
            [
                8.022287368774414
            ]
        ],
        [
            "Plants cannot move from place to",
            [
                "place but can change their orientation"
            ],
            [
                6.896062135696411,
                4.576
            ]
        ],
        [
            "Energy is released from glucose either in the presence of oxygen",
            [
                "(aerobic respiration) or the absence of oxygen (anaerobic respiration)"
            ],
            [
                7.374450922012329,
                6.862
            ]
        ],
        [
            "In humans, the nervous system provides a complex system of receptors, neurones and effectors which detect and respond to",
            [
                "different stimuli using electrical impulses"
            ]
        ],
        [
            "Metabolic reactions produce waste products, some of which may be",
            [
                "toxic"
            ],
            [
                6.908235788345337
            ]
        ],
        [
            "In plants, responses are controlled by",
            [
                "chemicals and are usually much slower"
            ],
            [
                6.340734243392944,
                2.145,
                4.693
            ]
        ],
        [
            "Mitosis",
            [
                "is an example of asexual reproduction"
            ]
        ],
        [
            "The DNA of offspring is",
            [
                "identical to parental DNA"
            ],
            [
                17.443
            ]
        ],
        [
            "Reproduction is",
            [
                "the process that leads to the production of more of the same kind of organism"
            ]
        ],
        [
            "Animals consume other living organisms in order to",
            [
                "obtain the energy they requireq"
            ]
        ],
        [
            "Movement is",
            [
                "an action by an organism causing a change of position or place"
            ]
        ],
        [
            "Respiration is a chemical reaction carried out in all",
            [
                "living organisms"
            ]
        ],
        [
            "The movement of an organism from place to",
            [
                "place is called locomotion"
            ],
            [
                4.302
            ]
        ]
    ],
    "synopsis": "The squishy stuff that makes you exist",
    "transfers": [
        [
            "If a plant cell is placed into distilled water (with a higher water potential than the cell), it will",
            [
                "gain water by osmosis",
                "the vacuole gets bigger, pushing the cell membrane against the cell wall",
                "the plant cell is described as being turgid or as containing a high turgor pressure (the pressure of the cytoplasm pushing against the cell wall)"
            ]
        ],
        [
            "Diffusion is the movement of molecules from a region of its higher concentration to a region of",
            [
                "its lower concentration"
            ],
            [
                6.309
            ]
        ],
        [
            "For living cells, the principle of the movement down a concentration gradient is the same, but the cell is surrounded by a",
            [
                "cell membrane, which can restrict the free movement of the molecules"
            ]
        ],
        [
            "The active uptake of glucose by epithelial cells in kidney tubules in the kidney nephron allows for the reabsorption of",
            [
                "glucose back into the blood so that none is lost in the urine"
            ],
            [
                1.616,
                7.764
            ]
        ],
        [
            "The vacuole gets smaller and the cell membrane shrivels away from the cell wall, it",
            [
                "becomes flaccid or plasmolysed (shrivelled up)"
            ]
        ],
        [
            "Water entering the cell by osmosis makes",
            [
                "the cell rigid and firm"
            ]
        ],
        [
            "As animal cells do not have a supporting cell wall, the results of osmosis can be",
            [
                "severe"
            ]
        ],
        [
            "It is important that osmosis is",
            [
                "carefully controlled in organisms to avoid damage to cells through lysis"
            ]
        ],
        [
            "Mineral ions are needed by",
            [
                "plants to function"
            ]
        ],
        [
            "The cell membrane is partially permeable which means it",
            [
                "allows small molecules (like water) through but not larger molecules (like solute molecules)"
            ]
        ],
        [
            "It can get a little confusing to talk about the 'concentration of water' when we also talk about solutions being \u2018concentrated\u2019 (having a lot of solute in them) so instead, we can say that a dilute solution has a",
            [
                "high water potential (the right-hand side of the diagram below) and a concentrated solution has a low water potential (the left-hand side of the diagram below):"
            ],
            [
                7.057
            ]
        ],
        [
            "The simplest sort of selection is based on the",
            [
                "size of the molecules (i.e. smaller molecules can diffuse across the membrane but larger molecules cannot)"
            ]
        ],
        [
            "All cells are surrounded by a cell membrane which is",
            [
                "partially permeable"
            ]
        ],
        [
            "An animal cell will continue to gain water until the cell membrane is",
            [
                "stretched too far and it bursts"
            ],
            [
                4.243
            ]
        ],
        [
            "You will need to learn examples of substances that",
            [
                "organisms obtain by diffusion"
            ]
        ],
        [
            "Root hair cells lining the surface of plant roots need to move minerals such as",
            [
                "magnesium ions from a region of lower concentration (the very dilute solution of minerals in the soil surrounding the roots) to a region of higher concentration (inside the cytoplasm of the cell)"
            ]
        ],
        [
            "Diffusion helps living organisms to",
            [
                "Obtain many of their requirements",
                "Get rid of many of their waste products",
                "Carry out gas exchange for respiration"
            ]
        ],
        [
            "This is important for plants as the effect of all the cells in a plant being firm is to provide",
            [
                "support and strength for the plant - making the plant stand upright with its leaves held out to catch sunlight"
            ]
        ],
        [
            "If an animal cell is placed into distilled water (with a higher water potential than the cell), it will",
            [
                "gain water by osmosis as it has no cell wall to create turgor pressure"
            ]
        ],
        [
            "Food molecules (such as the sugar glucose) can be absorbed across the wall of the small intestine by diffusion, but this is",
            [
                "dependent on a concentration gradient existing between the lumen of the intestine and the bloodstream"
            ],
            [
                4.173
            ]
        ],
        [
            "Molecules move down a concentration gradient, as a result of their",
            [
                "random movement"
            ]
        ],
        [
            "If plants do not receive enough water the cells",
            [
                "cannot remain rigid and firm (turgid) and the plant wilts"
            ]
        ],
        [
            "Nitrate ions are needed to make",
            [
                "amino acids for protein synthesis (and subsequently growth)"
            ]
        ],
        [
            "The human body is adapted to maintain the optimum",
            [
                "osmotic balance using processes such as sweating or increasing and decreasing urine concentration"
            ],
            [
                3.423
            ]
        ],
        [
            "If an animal cell is placed into a strong sugar solution (with a lower water potential than the cell), it will",
            [
                "lose water by osmosis and become crenated (shrivelled up)"
            ]
        ],
        [
            "Sugar molecules are used in respiration to release energy for",
            [
                "cells to function"
            ]
        ],
        [
            "Osmosis refers only to the movement of water molecules, so if in an exam you are talking about the movement of water, make sure you mention",
            [
                "osmosis as this will often earn you a mark."
            ]
        ],
        [
            "As plant cells have a supporting cell wall, they are protected from",
            [
                "cell lysis"
            ]
        ],
        [
            "Magnesium ions are required to make",
            [
                "chlorophyll"
            ]
        ],
        [
            "The cell membrane is a partially permeable membrane - this means",
            [
                "it allows some molecules to cross easily, but others with difficulty or not at all"
            ]
        ],
        [
            "Plant cells lose or gain water as a result of",
            [
                "osmosis"
            ]
        ],
        [
            "Animal cells lose and",
            [
                "gain water as a result of osmosis"
            ]
        ],
        [
            "In doing this, water is moving",
            [
                "down its concentration gradient"
            ]
        ],
        [
            "If a plant cell is placed into a strong sugar solution (with a lower water potential than the cell), it will",
            [
                "lose water by osmosis"
            ]
        ],
        [
            "Water can move in and out of cells by",
            [
                "osmosis"
            ]
        ],
        [
            "Remember that diffusion is a passive process, so when it occurs in a living organism, the cells of that organism",
            [
                "do not provide the particles involved with energy to diffuse. The particles that are moving about randomly have their own kinetic energy."
            ]
        ],
        [
            "Osmosis is the net movement of water molecules",
            [
                "from a region of higher water potential (dilute solution) to a region of lower water potential (concentrated solution), through a partially permeable membrane"
            ]
        ],
        [
            "The best explanations to do with osmosis will refer to water potential, so if you are",
            [
                "aiming for a 7, 8 or 9 you will need to understand the concept and use it in your explanations."
            ]
        ],
        [
            "Active transport allows molecules such as glucose to be transported into the bloodstream from the",
            [
                "lumen of the small intestine (the gut) when the concentration of sugar molecules in the blood is higher"
            ]
        ]
    ]
}