{
    "synopsis":"Los numeros catalanà, para estudiar en clasé",
    "numbers": [
        [
            "90",
            [
                "noranta  ",
                " norant\u00e8"
            ]
        ],
        [
            "6",
            [
                "sis  ",
                " sis\u00e8"
            ]
        ],
        [
            "36",
            [
                "trenta-i-sis  ",
                " trenta-i-sis\u00e8"
            ],
            [
                2.814
            ]
        ],
        [
            "8",
            [
                "vuit  ",
                " vuit\u00e8"
            ]
        ],
        [
            "13",
            [
                "tretze  ",
                " tretz\u00e8"
            ]
        ],
        [
            "29",
            [
                "vint-i-nou  ",
                " vint-i-nov\u00e8"
            ]
        ],
        [
            "101",
            [
                "cent u  ",
                " cent primer"
            ]
        ],
        [
            "0",
            [
                "zero"
            ],
            [
                0.909
            ]
        ],
        [
            "3",
            [
                "tres  ",
                " tercer"
            ]
        ],
        [
            "21",
            [
                "vint-i-u  ",
                " vint-i-un\u00e8"
            ]
        ],
        [
            "14",
            [
                "catorze  ",
                " catorz\u00e8"
            ]
        ],
        [
            "7",
            [
                "set  ",
                " set\u00e8"
            ]
        ],
        [
            "41",
            [
                "quaranta-i-uno  ",
                " quaranta-i-un\u00e8"
            ],
            [
                3.417
            ]
        ],
        [
            "38",
            [
                "trenta-i-vuit  ",
                " trenta-i-vuit\u00e8"
            ]
        ],
        [
            "16",
            [
                "setze  ",
                " setz\u00e8"
            ]
        ],
        [
            "300",
            [
                "tres-cents  ",
                " tres-cent\u00e8"
            ]
        ],
        [
            "37",
            [
                "trenta-i-set  ",
                " trenta-i-set\u00e8"
            ]
        ],
        [
            "15",
            [
                "quinze  ",
                " quinz\u00e8"
            ]
        ],
        [
            "600",
            [
                "sis-cents  ",
                " sis-cent\u00e8"
            ],
            [
                1.561
            ]
        ],
        [
            "23",
            [
                "vint-i-tres  ",
                " vint-i-tres\u00e8"
            ]
        ],
        [
            "700",
            [
                "set-cents  ",
                " set-cent\u00e8"
            ]
        ],
        [
            "28",
            [
                "vint-i-vuit  ",
                " vint-i-vuit\u00e8"
            ]
        ],
        [
            "100",
            [
                "cent  ",
                " cent\u00e8"
            ]
        ],
        [
            "39",
            [
                "trenta-i-nou  ",
                " trenta-i-nov\u00e8"
            ]
        ],
        [
            "1 million",
            [
                "un mili\u00f3  ",
                " milion\u00e8"
            ]
        ],
        [
            "60",
            [
                "seixanta  ",
                " seixant\u00e8"
            ]
        ],
        [
            "70",
            [
                "setanta  ",
                " setant\u00e8"
            ],
            [
                1.719,
                2.877
            ]
        ],
        [
            "800",
            [
                "vuit-cents  ",
                " vuit-cent\u00e8"
            ]
        ],
        [
            "2",
            [
                "dos (m) / dues (f)  ",
                " segon"
            ]
        ],
        [
            "10",
            [
                "deu  ",
                " des\u00e8"
            ]
        ],
        [
            "500",
            [
                "cinc-cents  ",
                " cinc-cent\u00e8"
            ]
        ],
        [
            "900",
            [
                "nou-cents  ",
                " nou-cent\u00e8"
            ]
        ],
        [
            "12",
            [
                "dotze  ",
                " dotz\u00e8"
            ]
        ],
        [
            "30",
            [
                "trenta  ",
                " trent\u00e8"
            ]
        ],
        [
            "34",
            [
                "trenta-i-quatre  ",
                " trenta-i-quatr\u00e8"
            ]
        ],
        [
            "33",
            [
                "trenta-i-tres  ",
                " trenta-i-tres\u00e8"
            ]
        ],
        [
            "25",
            [
                "vint-i-cinc  ",
                " vint-i-cinqu\u00e8"
            ],
            [
                2.525
            ]
        ],
        [
            "50",
            [
                "cinquanta  ",
                " cinquant\u00e8"
            ]
        ],
        [
            "35",
            [
                "trenta-i-cinc  ",
                " trenta-i-cinqu\u00e8"
            ]
        ],
        [
            "11",
            [
                "onze  ",
                " onz\u00e8"
            ]
        ],
        [
            "18",
            [
                "divuit  ",
                " divuit\u00e8"
            ]
        ],
        [
            "27",
            [
                "vint-i-set  ",
                " vint-i-set\u00e8"
            ]
        ],
        [
            "80",
            [
                "vuitanta  ",
                " vuitant\u00e8"
            ]
        ],
        [
            "1000",
            [
                "mil  ",
                " mil\u00e8"
            ],
            [
                2.19
            ]
        ],
        [
            "26",
            [
                "vint-i-sis  ",
                " vint-i-sis\u00e8"
            ]
        ],
        [
            "2 million",
            [
                "dos milions  ",
                " dos milion\u00e8"
            ]
        ],
        [
            "31",
            [
                "trenta-i-u  ",
                " trenta-i-un\u00e8"
            ]
        ],
        [
            "200",
            [
                "dos-cents  ",
                " dos-cent\u00e8"
            ],
            [
                3.132
            ]
        ],
        [
            "1",
            [
                "u / un (m) una (f)  ",
                " primer"
            ]
        ],
        [
            "9",
            [
                "nou  ",
                " nov\u00e8"
            ]
        ],
        [
            "40",
            [
                "quaranta  ",
                " quarant\u00e8"
            ],
            [
                2.157
            ]
        ],
        [
            "17",
            [
                "disset  ",
                " disset\u00e8"
            ]
        ],
        [
            "400",
            [
                "quatre-cents  ",
                " quatre-cent\u00e8"
            ]
        ],
        [
            "24",
            [
                "vint-i-quatre  ",
                " vint-i-quatr\u00e8"
            ],
            [
                2.992
            ]
        ],
        [
            "5",
            [
                "cinc  ",
                " cinqu\u00e8"
            ],
            [
                1.914
            ]
        ],
        [
            "2000",
            [
                "dos mil  ",
                " dos mil\u00e8"
            ]
        ],
        [
            "20",
            [
                "vint  ",
                " vint\u00e8"
            ]
        ],
        [
            "22",
            [
                "vint-i-dos  ",
                " vint-i-dos\u00e8"
            ],
            [
                1.251
            ]
        ],
        [
            "19",
            [
                "dinou  ",
                " dinov\u00e8"
            ]
        ],
        [
            "4",
            [
                "quatre  ",
                " quart"
            ]
        ],
        [
            "32",
            [
                "trenta-i-dos  ",
                " trenta-i-dos\u00e8"
            ]
        ]
    ]
}