{
    "electromagnetic":[
        ["Electromagnetic (EM) induction is ",[" generate electricity"]],
["EM induction is ",[" voltage is induced in a conductor or a coil when it moves through a magnetic field or when a magnetic field changes through it"]],
["In the motor ",[" is already a current in the conductor which experiences a force"]],
["In the generator ",[" is no initial current in the conductor but one is induced (created) when it moves through a magnetic field"]],
["This is done by the conductor or ",[" through the magnetic field lines of the magnetic field"]],
["A potential difference will be induced in the conductor ",[" is relative movement between the conductor and the magnetic field"]],
["When the magnet enters the ",[" field lines cut through the turns inducing a potential difference"]],

["A sensitive voltmeter can be used ",[" the size of the induced potential difference"]],
["If the conductor is part of a complete circuit ",[" current is induced in the conductor"]],
["The size of the induced potential difference is determined ",[" speed at which the wire|coil or magnet is moved","The number of turns on the coils of wire","The size of the coils","The strength of the magnetic field"]],
["The direction of the induced potential difference is determined ",[" orientation of the poles of the magnet"]],
["Increasing the speed will increase the rate at which the magnetic field lines are ",[" will increase the induced potential difference"]],
["Increasing the number of turns on the coils in the wire will increase the potential difference induced. This is ",[" coil will cut through the magnetic field lines and the total potential difference induced will be the result of all of the coils cutting the magnetic field lines"]],
["Increasing the area of the coils will increase the potential difference ",[" is because there will be more wire to cut through the magnetic field lines"]],
["Increasing the strength of the magnetic field ",[" the potential difference induced"]]
    ],
    "coninsuls": [
        [
            "Examples of insulators are",
            [
                "Rubber",
                "Plastic",
                "Glass",
                "Wood"
            ]
        ],
        [
            "Metals conduct electricity very well because",
            [
                "Current is the rate of flow of electrons so the more easily electrons are able to flow the better the conductor"
            ]
        ],
        [
            "Although they are not very good at conducting, they",
            [
                "do conduct a little in the form of static electricity"
            ]
        ],
        [
            "Two insulators can build up charge on their surfaces and if they touch",
            [
                "this would allow that charge to be conducted away"
            ]
        ],
        [
            "Different materials have different properties of",
            [
                "conductivity"
            ]
        ],
        [
            "A conductor is a material that",
            [
                "allows charge (usually electrons) to flow through it easily"
            ],
            [
                12.419,
                3.806,
                5.397
            ]
        ],
        [
            "Conductors tend to be",
            [
                "metals"
            ],
            [
                4.228,
                3.307
            ]
        ],
        [
            "This means the electrons are free to",
            [
                "move"
            ]
        ],
        [
            "On the atomic scale, conductors are made up of",
            [
                "positively charged metal ions with their outermost electrons delocalised"
            ],
            [
                3.329,
                3.356,
                1.772
            ]
        ],
        [
            "An example of a conductor is",
            [
                "Silver",
                "Copper",
                "Aluminium",
                "Steel"
            ],
            [
                3.515
            ]
        ],
        [
            "An insulator is a material that",
            [
                "has no free charges, hence does not allow the flow of charge through them very easily"
            ]
        ],
        [
            "Some non-metals, such as wood, allow",
            [
                "some charge to pass through them"
            ]
        ]
    ],
    "formulae": [
        [
            "change in thermal energy",
            [
                "mass * specific heat capacity * change in temperature"
            ],
            [
                1.945,
                2.863,
                1.29
            ]
        ],
        [
            "energy transferred in stretching",
            [
                "0.5 * spring constant * (extension)^2"
            ],
            [
                3.314,
                4.441
            ]
        ],
        [
            "pressure",
            [
                "force normal to surface / area of surface"
            ],
            [
                6.155,
                4.256
            ]
        ],
        [
            "charge",
            [
                "current * time"
            ],
            [
                4.405
            ]
        ],
        [
            "kinetic energy",
            [
                "1/2 * mass * (speed)^2"
            ],
            [
                5.974,
                3.098
            ]
        ],
        [
            "thermal energy for a change of state",
            [
                "mass * specific latent heat"
            ],
            [
                3.675,
                3.835,
                3.028
            ]
        ],
        [
            "efficenct",
            [
                "useful energy transferred by the device / total energy supplied to the device"
            ],
            [
                2.191,
                2.586,
                3.431
            ]
        ],
        [
            "acceleration",
            [
                "change in velocity / time taken"
            ],
            [
                4.12,
                1.547,
                3.795,
                5.541
            ]
        ],
        [
            "weight",
            [
                "mass * gravitational field strength"
            ]
        ],
        [
            "wave speed",
            [
                "frequency * wavelength"
            ],
            [
                6.619,
                2.295,
                3.781,
                4.025,
                3.605,
                4.828
            ]
        ],
        [
            "distance travelled",
            [
                "average speed * time"
            ],
            [
                3.564
            ]
        ],
        [
            "For transformers with 100% efficiency, potential difference across primary coil * current in primary coil",
            [
                "potential difference across secondary coil * current in secondary coil"
            ],
            [
                6.139
            ]
        ],
        [
            "energy transferred",
            [
                "current * potential difference * time"
            ],
            [
                4.418,
                3.653,
                3.906,
                4.565
            ]
        ],
        [
            "electrical power",
            [
                "current * potential difference"
            ],
            [
                3.679,
                3.688
            ]
        ],
        [
            "electrical power",
            [
                "(current)^2 * resistance"
            ],
            [
                6.043,
                7.002
            ]
        ],
        [
            "change in gravitational potential energy",
            [
                "mass * gravitational field strength * change in vertical height"
            ],
            [
                4.375
            ]
        ],
        [
            "potential difference across primary coil / potential difference across secondary coil",
            [
                "number of turns in primary coil / number of turns in secondary coil"
            ],
            [
                5.591
            ]
        ],
        [
            "wave speed",
            [
                "distance / time"
            ],
            [
                2.045,
                2.678,
                2.727,
                3.18
            ]
        ],
        [
            "force",
            [
                "change in momentum / time"
            ],
            [
                4.914,
                9.182
            ]
        ],
        [
            "force exerted on a spring",
            [
                "spring constant * extension"
            ],
            [
                3.061,
                5.673,
                3.174,
                4.251
            ]
        ],
        [
            "energy transferred",
            [
                "charge moved * potential difference"
            ]
        ],
        [
            "(final velocity)^2 - (initial velocity)^2",
            [
                "2 * acceleration * distance"
            ],
            [
                9.022,
                3.513,
                7.021
            ]
        ],
        [
            "power",
            [
                "work done / time taken"
            ]
        ],
        [
            "density",
            [
                "mass / volume"
            ],
            [
                3.794,
                1.44
            ]
        ],
        [
            "pressure due to a column of liquid",
            [
                "height of column * density of liquid * gravitational field strength"
            ],
            [
                3.284,
                3.026
            ]
        ],
        [
            "momentum",
            [
                "mass * velocity"
            ],
            [
                3.536,
                2.707
            ]
        ],
        [
            "potential difference",
            [
                "current * resistance"
            ],
            [
                7.103,
                2.748,
                1.644
            ]
        ],
        [
            "work done",
            [
                "force * distance moved in the direction of the force"
            ],
            [
                4.731,
                5.8,
                2.142,
                2.505,
                1.757,
                6.239
            ]
        ],
        [
            "force",
            [
                "mass * acceleration"
            ]
        ],
        [
            "power",
            [
                "energy transferred / time taken"
            ],
            [
                7.46
            ]
        ],
        [
            "force on a conductor at right angles to a magnetic field carrying a current",
            [
                "magnetic flux density * current * length"
            ]
        ],
        [
            "moment of a force",
            [
                "force * distance normal to the direction of the force"
            ]
        ]
    ],
    "magnets": [
        [
            "The Law of Magnetism states that",
            [
                "Two like poles (S and S or N and N) repel each other",
                "Two unlike poles (S and N) attract each other",
                "The attraction or repulsion between two magnetic poles is an example of a non-contact force"
            ],
            [
                3.578
            ]
        ],
        [
            "When two magnets are held close together, there will be an attractive or repulsive force between the magnets depending on how they are arranged",
            [
                "Opposite poles attract",
                "like poles repel"
            ],
            [
                6.056
            ]
        ],
        [
            "Magnetically soft materials",
            [
                "Are easy to magnetise",
                "Easily lose their magnetism (temporarily magnetised)"
            ]
        ],
        [
            "Electromagnets are made out of",
            [
                "magnetically soft materials"
            ]
        ],
        [
            "Magnets have two poles",
            [
                "a north and a south"
            ],
            [
                4.493
            ]
        ],
        [
            "The ends of a magnet are called",
            [
                "poles"
            ],
            [
                3.415
            ]
        ],
        [
            "Magnetically hard materials (e.g. steel)",
            [
                "Are difficult to magnetise",
                "Do not easily lose their magnetism (permanently magnetised)"
            ]
        ],
        [
            "Magnetic materials can be",
            [
                "soft or hard"
            ]
        ],
        [
            "This means that electromagnets can be",
            [
                "made magnetic or non-magnetic as an when required"
            ],
            [
                6.682
            ]
        ],
        [
            "Permanent magnets are made out of",
            [
                "magnetically hard materials"
            ]
        ]
    ],
    "synopsis": "The bouncy ball equations which determines your existence"
}